DailyNews				
title	link	source	status	created
Health alert: India has 25% of the world's tuberculosis patients.	http://www.hindustantimes.com/health-and-fitness/health-alert-india-has-25-of-the-world-s-tuberculosis-patients/story-pK3wK9ybCyfCs4RvBCQg3O.html	ndtv.com	new	
India's new National Health Policy sets a very low...	https://scroll.in/pulse/832245/indias-new-national-health-policy-sets-a-very-low-bar-for-better-public-health	hindu.com	new	
Breathing life into health care in India.	http://www.thehindu.com/opinion/op-ed/breathing-life-into-health-care/article17588395.ece	times.india.com	new	