{    "bundles": [
        {
            "type": "css",
            "name": "static-combined.css",
            "files": [
                "main.css",
                "responsive.css",
                "style.css"
				]
        },
        {
            "type": "js",
            "name": "static-combined.js",
            "files": [
                "static/scripts/controllers/about.js",
				"static/scripts/controllers/generalNotificationController.js",
				"static/scripts/controllers/home.js",
				"static/scripts/controllers/opinionNotificationController.js",
				"static/scripts/controllers/personality.js",
				"static/scripts/controllers/searchuser.js",
				"static/scripts/controllers/trends.js",
				"static/scripts/controllers/uploadFile.js",
				"static/scripts/controllers/userConnectionController.js",
				"static/scripts/controllers/user-setting.js",
				"static/scripts/controllers/viewAllOpinion.js",
				"static/scripts/controllers/ViewAllsearchuser.js",
				"static/scripts/controllers/viewOpinion.js",
				
				"static/scripts/directives/cookiePolicy.js",
				"static/scripts/directives/forgotPwd.js",
				"static/scripts/directives/forgotUser.js",
				"static/scripts/directives/generalUtils.js",
				"static/scripts/directives/gpi.js",
				"static/scripts/directives/login.js",
				"static/scripts/directives/plainOpinion.js",
				"static/scripts/directives/privacyPolicy.js",
				"static/scripts/directives/readMore.js",
				"static/scripts/directives/signup.js",
				
				"static/scripts/services/createopinion_service.js",
				"static/scripts/services/home_service.js",
				"static/scripts/services/http_service.js",
				"static/scripts/services/personality_service.js",
				"static/scripts/services/sentiment_service.js",
				"static/scripts/services/trend_service.js",
				"static/scripts/services/uploadFile_service.js",
				"static/scripts/services/user-setting_service.js",				
            ]
        }
    ]
}